
hello:     file format elf64-x86-64


Disassembly of section .init:

0000000000000738 <_init>:
 738:	48 83 ec 08          	sub    $0x8,%rsp
 73c:	48 8b 05 a5 08 20 00 	mov    0x2008a5(%rip),%rax        # 200fe8 <__gmon_start__>
 743:	48 85 c0             	test   %rax,%rax
 746:	74 02                	je     74a <_init+0x12>
 748:	ff d0                	callq  *%rax
 74a:	48 83 c4 08          	add    $0x8,%rsp
 74e:	c3                   	retq   

Disassembly of section .plt:

0000000000000750 <.plt>:
 750:	ff 35 42 08 20 00    	pushq  0x200842(%rip)        # 200f98 <_GLOBAL_OFFSET_TABLE_+0x8>
 756:	ff 25 44 08 20 00    	jmpq   *0x200844(%rip)        # 200fa0 <_GLOBAL_OFFSET_TABLE_+0x10>
 75c:	0f 1f 40 00          	nopl   0x0(%rax)

0000000000000760 <__cxa_atexit@plt>:
 760:	ff 25 42 08 20 00    	jmpq   *0x200842(%rip)        # 200fa8 <__cxa_atexit@GLIBC_2.2.5>
 766:	68 00 00 00 00       	pushq  $0x0
 76b:	e9 e0 ff ff ff       	jmpq   750 <.plt>

0000000000000770 <_ZStlsISt11char_traitsIcEERSt13basic_ostreamIcT_ES5_PKc@plt>:
 770:	ff 25 3a 08 20 00    	jmpq   *0x20083a(%rip)        # 200fb0 <_ZStlsISt11char_traitsIcEERSt13basic_ostreamIcT_ES5_PKc@GLIBCXX_3.4>
 776:	68 01 00 00 00       	pushq  $0x1
 77b:	e9 d0 ff ff ff       	jmpq   750 <.plt>

0000000000000780 <_ZNSolsEPFRSoS_E@plt>:
 780:	ff 25 32 08 20 00    	jmpq   *0x200832(%rip)        # 200fb8 <_ZNSolsEPFRSoS_E@GLIBCXX_3.4>
 786:	68 02 00 00 00       	pushq  $0x2
 78b:	e9 c0 ff ff ff       	jmpq   750 <.plt>

0000000000000790 <_ZNSt8ios_base4InitC1Ev@plt>:
 790:	ff 25 2a 08 20 00    	jmpq   *0x20082a(%rip)        # 200fc0 <_ZNSt8ios_base4InitC1Ev@GLIBCXX_3.4>
 796:	68 03 00 00 00       	pushq  $0x3
 79b:	e9 b0 ff ff ff       	jmpq   750 <.plt>

Disassembly of section .plt.got:

00000000000007a0 <__cxa_finalize@plt>:
 7a0:	ff 25 22 08 20 00    	jmpq   *0x200822(%rip)        # 200fc8 <__cxa_finalize@GLIBC_2.2.5>
 7a6:	66 90                	xchg   %ax,%ax

Disassembly of section .text:

00000000000007b0 <_start>:
 7b0:	31 ed                	xor    %ebp,%ebp
 7b2:	49 89 d1             	mov    %rdx,%r9
 7b5:	5e                   	pop    %rsi
 7b6:	48 89 e2             	mov    %rsp,%rdx
 7b9:	48 83 e4 f0          	and    $0xfffffffffffffff0,%rsp
 7bd:	50                   	push   %rax
 7be:	54                   	push   %rsp
 7bf:	4c 8d 05 fa 01 00 00 	lea    0x1fa(%rip),%r8        # 9c0 <__libc_csu_fini>
 7c6:	48 8d 0d 83 01 00 00 	lea    0x183(%rip),%rcx        # 950 <__libc_csu_init>
 7cd:	48 8d 3d e6 00 00 00 	lea    0xe6(%rip),%rdi        # 8ba <main>
 7d4:	ff 15 06 08 20 00    	callq  *0x200806(%rip)        # 200fe0 <__libc_start_main@GLIBC_2.2.5>
 7da:	f4                   	hlt    
 7db:	0f 1f 44 00 00       	nopl   0x0(%rax,%rax,1)

00000000000007e0 <deregister_tm_clones>:
 7e0:	48 8d 3d 29 08 20 00 	lea    0x200829(%rip),%rdi        # 201010 <__TMC_END__>
 7e7:	55                   	push   %rbp
 7e8:	48 8d 05 21 08 20 00 	lea    0x200821(%rip),%rax        # 201010 <__TMC_END__>
 7ef:	48 39 f8             	cmp    %rdi,%rax
 7f2:	48 89 e5             	mov    %rsp,%rbp
 7f5:	74 19                	je     810 <deregister_tm_clones+0x30>
 7f7:	48 8b 05 da 07 20 00 	mov    0x2007da(%rip),%rax        # 200fd8 <_ITM_deregisterTMCloneTable>
 7fe:	48 85 c0             	test   %rax,%rax
 801:	74 0d                	je     810 <deregister_tm_clones+0x30>
 803:	5d                   	pop    %rbp
 804:	ff e0                	jmpq   *%rax
 806:	66 2e 0f 1f 84 00 00 	nopw   %cs:0x0(%rax,%rax,1)
 80d:	00 00 00 
 810:	5d                   	pop    %rbp
 811:	c3                   	retq   
 812:	0f 1f 40 00          	nopl   0x0(%rax)
 816:	66 2e 0f 1f 84 00 00 	nopw   %cs:0x0(%rax,%rax,1)
 81d:	00 00 00 

0000000000000820 <register_tm_clones>:
 820:	48 8d 3d e9 07 20 00 	lea    0x2007e9(%rip),%rdi        # 201010 <__TMC_END__>
 827:	48 8d 35 e2 07 20 00 	lea    0x2007e2(%rip),%rsi        # 201010 <__TMC_END__>
 82e:	55                   	push   %rbp
 82f:	48 29 fe             	sub    %rdi,%rsi
 832:	48 89 e5             	mov    %rsp,%rbp
 835:	48 c1 fe 03          	sar    $0x3,%rsi
 839:	48 89 f0             	mov    %rsi,%rax
 83c:	48 c1 e8 3f          	shr    $0x3f,%rax
 840:	48 01 c6             	add    %rax,%rsi
 843:	48 d1 fe             	sar    %rsi
 846:	74 18                	je     860 <register_tm_clones+0x40>
 848:	48 8b 05 a1 07 20 00 	mov    0x2007a1(%rip),%rax        # 200ff0 <_ITM_registerTMCloneTable>
 84f:	48 85 c0             	test   %rax,%rax
 852:	74 0c                	je     860 <register_tm_clones+0x40>
 854:	5d                   	pop    %rbp
 855:	ff e0                	jmpq   *%rax
 857:	66 0f 1f 84 00 00 00 	nopw   0x0(%rax,%rax,1)
 85e:	00 00 
 860:	5d                   	pop    %rbp
 861:	c3                   	retq   
 862:	0f 1f 40 00          	nopl   0x0(%rax)
 866:	66 2e 0f 1f 84 00 00 	nopw   %cs:0x0(%rax,%rax,1)
 86d:	00 00 00 

0000000000000870 <__do_global_dtors_aux>:
 870:	80 3d b9 08 20 00 00 	cmpb   $0x0,0x2008b9(%rip)        # 201130 <completed.7698>
 877:	75 2f                	jne    8a8 <__do_global_dtors_aux+0x38>
 879:	48 83 3d 47 07 20 00 	cmpq   $0x0,0x200747(%rip)        # 200fc8 <__cxa_finalize@GLIBC_2.2.5>
 880:	00 
 881:	55                   	push   %rbp
 882:	48 89 e5             	mov    %rsp,%rbp
 885:	74 0c                	je     893 <__do_global_dtors_aux+0x23>
 887:	48 8b 3d 7a 07 20 00 	mov    0x20077a(%rip),%rdi        # 201008 <__dso_handle>
 88e:	e8 0d ff ff ff       	callq  7a0 <__cxa_finalize@plt>
 893:	e8 48 ff ff ff       	callq  7e0 <deregister_tm_clones>
 898:	c6 05 91 08 20 00 01 	movb   $0x1,0x200891(%rip)        # 201130 <completed.7698>
 89f:	5d                   	pop    %rbp
 8a0:	c3                   	retq   
 8a1:	0f 1f 80 00 00 00 00 	nopl   0x0(%rax)
 8a8:	f3 c3                	repz retq 
 8aa:	66 0f 1f 44 00 00    	nopw   0x0(%rax,%rax,1)

00000000000008b0 <frame_dummy>:
 8b0:	55                   	push   %rbp
 8b1:	48 89 e5             	mov    %rsp,%rbp
 8b4:	5d                   	pop    %rbp
 8b5:	e9 66 ff ff ff       	jmpq   820 <register_tm_clones>

00000000000008ba <main>:
 8ba:	55                   	push   %rbp
 8bb:	48 89 e5             	mov    %rsp,%rbp
 8be:	48 8d 35 10 01 00 00 	lea    0x110(%rip),%rsi        # 9d5 <_ZStL19piecewise_construct+0x1>
 8c5:	48 8d 3d 54 07 20 00 	lea    0x200754(%rip),%rdi        # 201020 <_ZSt4cout@@GLIBCXX_3.4>
 8cc:	e8 9f fe ff ff       	callq  770 <_ZStlsISt11char_traitsIcEERSt13basic_ostreamIcT_ES5_PKc@plt>
 8d1:	48 89 c2             	mov    %rax,%rdx
 8d4:	48 8b 05 f5 06 20 00 	mov    0x2006f5(%rip),%rax        # 200fd0 <_ZSt4endlIcSt11char_traitsIcEERSt13basic_ostreamIT_T0_ES6_@GLIBCXX_3.4>
 8db:	48 89 c6             	mov    %rax,%rsi
 8de:	48 89 d7             	mov    %rdx,%rdi
 8e1:	e8 9a fe ff ff       	callq  780 <_ZNSolsEPFRSoS_E@plt>
 8e6:	b8 00 00 00 00       	mov    $0x0,%eax
 8eb:	5d                   	pop    %rbp
 8ec:	c3                   	retq   

00000000000008ed <_Z41__static_initialization_and_destruction_0ii>:
 8ed:	55                   	push   %rbp
 8ee:	48 89 e5             	mov    %rsp,%rbp
 8f1:	48 83 ec 10          	sub    $0x10,%rsp
 8f5:	89 7d fc             	mov    %edi,-0x4(%rbp)
 8f8:	89 75 f8             	mov    %esi,-0x8(%rbp)
 8fb:	83 7d fc 01          	cmpl   $0x1,-0x4(%rbp)
 8ff:	75 32                	jne    933 <_Z41__static_initialization_and_destruction_0ii+0x46>
 901:	81 7d f8 ff ff 00 00 	cmpl   $0xffff,-0x8(%rbp)
 908:	75 29                	jne    933 <_Z41__static_initialization_and_destruction_0ii+0x46>
 90a:	48 8d 3d 20 08 20 00 	lea    0x200820(%rip),%rdi        # 201131 <_ZStL8__ioinit>
 911:	e8 7a fe ff ff       	callq  790 <_ZNSt8ios_base4InitC1Ev@plt>
 916:	48 8d 15 eb 06 20 00 	lea    0x2006eb(%rip),%rdx        # 201008 <__dso_handle>
 91d:	48 8d 35 0d 08 20 00 	lea    0x20080d(%rip),%rsi        # 201131 <_ZStL8__ioinit>
 924:	48 8b 05 cd 06 20 00 	mov    0x2006cd(%rip),%rax        # 200ff8 <_ZNSt8ios_base4InitD1Ev@GLIBCXX_3.4>
 92b:	48 89 c7             	mov    %rax,%rdi
 92e:	e8 2d fe ff ff       	callq  760 <__cxa_atexit@plt>
 933:	90                   	nop
 934:	c9                   	leaveq 
 935:	c3                   	retq   

0000000000000936 <_GLOBAL__sub_I_main>:
 936:	55                   	push   %rbp
 937:	48 89 e5             	mov    %rsp,%rbp
 93a:	be ff ff 00 00       	mov    $0xffff,%esi
 93f:	bf 01 00 00 00       	mov    $0x1,%edi
 944:	e8 a4 ff ff ff       	callq  8ed <_Z41__static_initialization_and_destruction_0ii>
 949:	5d                   	pop    %rbp
 94a:	c3                   	retq   
 94b:	0f 1f 44 00 00       	nopl   0x0(%rax,%rax,1)

0000000000000950 <__libc_csu_init>:
 950:	41 57                	push   %r15
 952:	41 56                	push   %r14
 954:	49 89 d7             	mov    %rdx,%r15
 957:	41 55                	push   %r13
 959:	41 54                	push   %r12
 95b:	4c 8d 25 16 04 20 00 	lea    0x200416(%rip),%r12        # 200d78 <__frame_dummy_init_array_entry>
 962:	55                   	push   %rbp
 963:	48 8d 2d 1e 04 20 00 	lea    0x20041e(%rip),%rbp        # 200d88 <__init_array_end>
 96a:	53                   	push   %rbx
 96b:	41 89 fd             	mov    %edi,%r13d
 96e:	49 89 f6             	mov    %rsi,%r14
 971:	4c 29 e5             	sub    %r12,%rbp
 974:	48 83 ec 08          	sub    $0x8,%rsp
 978:	48 c1 fd 03          	sar    $0x3,%rbp
 97c:	e8 b7 fd ff ff       	callq  738 <_init>
 981:	48 85 ed             	test   %rbp,%rbp
 984:	74 20                	je     9a6 <__libc_csu_init+0x56>
 986:	31 db                	xor    %ebx,%ebx
 988:	0f 1f 84 00 00 00 00 	nopl   0x0(%rax,%rax,1)
 98f:	00 
 990:	4c 89 fa             	mov    %r15,%rdx
 993:	4c 89 f6             	mov    %r14,%rsi
 996:	44 89 ef             	mov    %r13d,%edi
 999:	41 ff 14 dc          	callq  *(%r12,%rbx,8)
 99d:	48 83 c3 01          	add    $0x1,%rbx
 9a1:	48 39 dd             	cmp    %rbx,%rbp
 9a4:	75 ea                	jne    990 <__libc_csu_init+0x40>
 9a6:	48 83 c4 08          	add    $0x8,%rsp
 9aa:	5b                   	pop    %rbx
 9ab:	5d                   	pop    %rbp
 9ac:	41 5c                	pop    %r12
 9ae:	41 5d                	pop    %r13
 9b0:	41 5e                	pop    %r14
 9b2:	41 5f                	pop    %r15
 9b4:	c3                   	retq   
 9b5:	90                   	nop
 9b6:	66 2e 0f 1f 84 00 00 	nopw   %cs:0x0(%rax,%rax,1)
 9bd:	00 00 00 

00000000000009c0 <__libc_csu_fini>:
 9c0:	f3 c3                	repz retq 

Disassembly of section .fini:

00000000000009c4 <_fini>:
 9c4:	48 83 ec 08          	sub    $0x8,%rsp
 9c8:	48 83 c4 08          	add    $0x8,%rsp
 9cc:	c3                   	retq   
